<?xml version="1.0" encoding="utf-8"?>
<!-- Generator: Adobe Illustrator 27.5.0, SVG Export Plug-In . SVG Version: 6.00 Build 0)  -->
<svg version="1.1" xmlns="http://www.w3.org/2000/svg" xmlns:xlink="http://www.w3.org/1999/xlink" x="0px" y="0px"
	 viewBox="0 0 500 500" style="enable-background:new 0 0 500 500;" xml:space="preserve">
<g id="Background_Complete">
	<g>
		<rect y="382.398" style="fill:#EBEBEB;" width="500" height="0.25"/>
		<rect x="416.779" y="398.494" style="fill:#EBEBEB;" width="33.122" height="0.25"/>
		<rect x="333.381" y="398.494" style="fill:#EBEBEB;" width="70.806" height="0.25"/>
		<rect x="275.141" y="389.208" style="fill:#EBEBEB;" width="19.192" height="0.25"/>
		<rect x="52.459" y="390.888" style="fill:#EBEBEB;" width="34.29" height="0.25"/>
		<rect x="95.652" y="390.888" style="fill:#EBEBEB;" width="62.348" height="0.25"/>
		<rect x="188.333" y="395.111" style="fill:#EBEBEB;" width="36.814" height="0.25"/>
		<path style="fill:#EBEBEB;" d="M237.014,337.8H43.915c-3.147,0-5.708-2.561-5.708-5.708V60.66c0-3.147,2.561-5.708,5.708-5.708
			h193.099c3.146,0,5.707,2.561,5.707,5.708v271.432C242.721,335.239,240.16,337.8,237.014,337.8z M43.915,55.203
			c-3.01,0-5.458,2.448-5.458,5.458v271.432c0,3.01,2.448,5.458,5.458,5.458h193.099c3.009,0,5.457-2.448,5.457-5.458V60.66
			c0-3.009-2.448-5.458-5.457-5.458H43.915z"/>
		<path style="fill:#EBEBEB;" d="M453.31,337.8H260.212c-3.147,0-5.707-2.561-5.707-5.708V60.66c0-3.147,2.561-5.708,5.707-5.708
			H453.31c3.148,0,5.708,2.561,5.708,5.708v271.432C459.019,335.239,456.458,337.8,453.31,337.8z M260.212,55.203
			c-3.009,0-5.457,2.448-5.457,5.458v271.432c0,3.01,2.448,5.458,5.457,5.458H453.31c3.01,0,5.458-2.448,5.458-5.458V60.66
			c0-3.009-2.448-5.458-5.458-5.458H260.212z"/>
	</g>
	<g>
		<g>
			<g>
				<g>
					
						<rect x="336.999" y="242.219" transform="matrix(-1 -1.224647e-16 1.224647e-16 -1 692.5048 619.0037)" style="fill:#F0F0F0;" width="18.507" height="134.566"/>
					
						<rect x="148.048" y="376.785" transform="matrix(-1 -1.224647e-16 1.224647e-16 -1 500 759.1835)" style="fill:#F0F0F0;" width="203.905" height="5.613"/>
					<rect x="144.494" y="242.219" style="fill:#F5F5F5;" width="192.505" height="134.566"/>
					
						<rect x="336.999" y="237.32" transform="matrix(-1 -1.224647e-16 1.224647e-16 -1 692.5048 479.5389)" style="fill:#E6E6E6;" width="18.507" height="4.898"/>
					<rect x="144.494" y="237.32" style="fill:#F0F0F0;" width="192.505" height="4.898"/>
					<path style="fill:#E0E0E0;" d="M330.345,282.799H151.148v-30.298h179.196V282.799z M152.393,281.555h176.708v-27.81H152.393
						V281.555z"/>
					<path style="fill:#E0E0E0;" d="M330.345,366.503H151.148v-76.275h179.196V366.503z M152.393,365.259h176.708v-73.787H152.393
						V365.259z"/>
					
						<rect x="175.292" y="253.123" transform="matrix(-1 -1.224647e-16 1.224647e-16 -1 481.4926 510.2298)" style="fill:#E0E0E0;" width="130.91" height="3.984"/>
					
						<rect x="175.292" y="290.849" transform="matrix(-1 -1.224647e-16 1.224647e-16 -1 481.4926 585.6834)" style="fill:#E0E0E0;" width="130.91" height="3.984"/>
				</g>
			</g>
		</g>
		<g>
			<path style="fill:#F5F5F5;" d="M420.902,378.827L420.902,378.827c-0.815,0-1.482-0.667-1.482-1.482V146.26
				c0-0.815,0.667-1.482,1.482-1.482l0,0c0.815,0,1.482,0.667,1.482,1.482v231.085C422.383,378.16,421.717,378.827,420.902,378.827z
				"/>
			<path style="fill:#F0F0F0;" d="M427.942,382.398h-14.08v-3.08c0-2.244,1.819-4.063,4.063-4.063h5.954
				c2.244,0,4.063,1.819,4.063,4.063V382.398z"/>
			<g>
				<path style="fill:#E0E0E0;" d="M392.138,176.951c0,0,0.731-28.277,28.765-28.277c28.033,0,28.764,28.277,28.764,28.277H392.138z
					"/>
			</g>
		</g>
		<g>
			<path style="fill:#F5F5F5;" d="M79.096,378.827L79.096,378.827c-0.815,0-1.482-0.667-1.482-1.482V146.26
				c0-0.815,0.667-1.482,1.482-1.482l0,0c0.815,0,1.482,0.667,1.482,1.482v231.085C80.578,378.16,79.911,378.827,79.096,378.827z"/>
			<path style="fill:#F0F0F0;" d="M86.136,382.398h-14.08v-3.08c0-2.244,1.819-4.063,4.063-4.063h5.954
				c2.244,0,4.063,1.819,4.063,4.063V382.398z"/>
			<g>
				<path style="fill:#E0E0E0;" d="M50.333,176.951c0,0,0.731-28.277,28.764-28.277c28.033,0,28.765,28.277,28.765,28.277H50.333z"
					/>
			</g>
		</g>
		<g>
			<rect x="214.906" y="235.2" style="fill:#E0E0E0;" width="71.141" height="2.12"/>
			<polygon style="fill:#E0E0E0;" points="286.047,235.2 214.906,235.2 221.753,194.472 292.894,194.472 			"/>
			<polygon style="fill:#EBEBEB;" points="284.726,235.2 213.585,235.2 220.432,194.472 291.573,194.472 			"/>
			<path style="fill:#FAFAFA;" d="M216.287,231.999l5.822-34.63c0.074-0.44,0.455-0.763,0.902-0.763h64.958
				c0.566,0,0.996,0.508,0.902,1.066l-5.822,34.63c-0.074,0.44-0.455,0.763-0.902,0.763h-64.958
				C216.623,233.065,216.193,232.557,216.287,231.999z"/>
			<rect x="198.81" y="235.2" style="fill:#F0F0F0;" width="71.141" height="2.12"/>
		</g>
		<g>
			<rect x="154.411" y="87.757" style="fill:#EBEBEB;" width="188.476" height="60.917"/>
			
				<rect x="342.887" y="87.757" transform="matrix(-1 -1.224647e-16 1.224647e-16 -1 688.4761 236.4302)" style="fill:#E0E0E0;" width="2.701" height="60.917"/>
			<rect x="162.664" y="96.009" style="fill:#FFFFFF;" width="171.971" height="44.412"/>
			
				<rect x="241.33" y="110.896" transform="matrix(0.7071 0.7071 -0.7071 0.7071 156.4172 -141.1968)" style="fill:#F5F5F5;" width="14.638" height="14.638"/>
			
				<rect x="213.542" y="110.896" transform="matrix(0.7071 0.7071 -0.7071 0.7071 148.2784 -121.5479)" style="fill:#F5F5F5;" width="14.638" height="14.638"/>
			
				<rect x="185.755" y="110.896" transform="matrix(0.7071 0.7071 -0.7071 0.7071 140.1396 -101.899)" style="fill:#F5F5F5;" width="14.638" height="14.638"/>
			
				<rect x="269.118" y="110.896" transform="matrix(0.7071 0.7071 -0.7071 0.7071 164.556 -160.8457)" style="fill:#F5F5F5;" width="14.638" height="14.638"/>
			
				<rect x="296.906" y="110.896" transform="matrix(0.7071 0.7071 -0.7071 0.7071 172.6962 -180.4953)" style="fill:#F5F5F5;" width="14.638" height="14.638"/>
		</g>
	</g>
</g>
<g id="Background_Simple" style="display:none;">
	<g style="display:inline;">
		<path style="fill:#407BFF;" d="M49.057,217.654c-0.826,25.819,5.095,57.818,40.894,60.631c17.928,1.409,37.797-4.49,55.651-1.851
			c19.02,2.812,31.512,9.447,54.106,6.792c87.795-10.316,140.126-84.735,134.102-136.326
			c-4.982-42.669-48.056-117.94-129.603-69.967c-16.065,9.451-28.883,21.882-44.715,31.323c-15,8.945-38.797,1.192-67.766,22.029
			C65.553,149.108,49.715,197.081,49.057,217.654z"/>
		<path style="opacity:0.9;fill:#FFFFFF;" d="M49.057,217.654c-0.826,25.819,5.095,57.818,40.894,60.631
			c17.928,1.409,37.797-4.49,55.651-1.851c19.02,2.812,31.512,9.447,54.106,6.792c87.795-10.316,140.126-84.735,134.102-136.326
			c-4.982-42.669-48.056-117.94-129.603-69.967c-16.065,9.451-28.883,21.882-44.715,31.323c-15,8.945-38.797,1.192-67.766,22.029
			C65.553,149.108,49.715,197.081,49.057,217.654z"/>
	</g>
</g>
<g id="Shadow_1_">
	<ellipse id="_x3C_Path_x3E__350_" style="fill:#F5F5F5;" cx="250" cy="416.238" rx="193.889" ry="11.323"/>
</g>
<g id="Calculator">
	<g>
		<g>
			<path style="fill:#407BFF;" d="M362.939,123.047c0.33-4.978-3.438-9.013-8.416-9.013H216.088c-4.978,0-9.281,4.035-9.611,9.013
				l-3.177,47.914L183.368,318.41c-0.673,4.978,2.817,9.013,7.795,9.013h138.436c4.978,0,9.559-4.035,10.232-9.013l19.932-147.449
				L362.939,123.047z"/>
			<path style="opacity:0.2;" d="M362.939,123.047c0.33-4.978-3.438-9.013-8.416-9.013H216.088c-4.978,0-9.281,4.035-9.611,9.013
				l-3.177,47.914L183.368,318.41c-0.673,4.978,2.817,9.013,7.795,9.013h138.436c4.978,0,9.559-4.035,10.232-9.013l19.932-147.449
				L362.939,123.047z"/>
		</g>
		<path style="fill:#407BFF;" d="M324.671,327.423H186.235c-4.978,0-8.468-4.035-7.795-9.013l19.932-147.449h156.463L334.902,318.41
			C334.23,323.388,329.649,327.423,324.671,327.423z"/>
		<rect x="216.05" y="110.533" style="fill:#407BFF;" width="20.617" height="1"/>
		<path style="fill:#407BFF;" d="M206.296,112.597l-0.414-0.91c1.687-0.765,3.462-1.153,5.278-1.153v1
			C209.487,111.533,207.851,111.891,206.296,112.597z"/>
		<path style="fill:#407BFF;" d="M349.595,114.033H211.16c-4.978,0-9.281,4.035-9.611,9.013l-3.177,47.914h156.463l3.177-47.914
			C358.341,118.069,354.573,114.033,349.595,114.033z"/>
		<path style="opacity:0.9;fill:#FFFFFF;" d="M206.102,159.261l2.223-33.528c0.174-2.621,2.439-4.746,5.06-4.746h133.064
			c2.621,0,4.605,2.125,4.431,4.746l-2.223,33.528c-0.174,2.621-2.439,4.746-5.06,4.746H210.533
			C207.912,164.007,205.928,161.882,206.102,159.261z"/>
		<g style="opacity:0.4;">
			<path style="fill:#407BFF;" d="M336.863,126.484l-1.51,1.408c-0.076,0.071-0.175,0.11-0.279,0.11l-8.021,0.002
				c-0.114,0-0.223-0.048-0.3-0.131l-1.301-1.407c-0.242-0.262-0.056-0.686,0.3-0.686l10.832-0.002
				C336.955,125.776,337.134,126.231,336.863,126.484z"/>
			<path style="fill:#407BFF;" d="M334.74,152.469l-10.832,0.002c-0.371,0-0.55-0.454-0.279-0.707l1.506-1.408
				c0.076-0.071,0.176-0.11,0.279-0.11l8.021-0.002c0.114,0,0.222,0.047,0.3,0.131l1.305,1.407
				C335.283,152.044,335.097,152.469,334.74,152.469z"/>
			<path style="fill:#407BFF;" d="M335.794,139.404l-0.777,0.722c-0.076,0.07-0.175,0.109-0.278,0.109l-9.385,0.002
				c-0.238,0-0.425-0.202-0.408-0.439l0.103-1.407c0.016-0.214,0.193-0.379,0.408-0.379l9.427-0.002c0.114,0,0.223,0.048,0.3,0.131
				l0.633,0.685C335.969,138.992,335.959,139.25,335.794,139.404z"/>
			<path style="fill:#407BFF;" d="M337.073,140.167l-0.792,10.859c-0.026,0.357-0.466,0.511-0.708,0.247l-1.296-1.407
				c-0.077-0.083-0.115-0.194-0.107-0.307l0.587-8.048c0.007-0.103,0.053-0.199,0.129-0.269l1.501-1.403
				C336.658,139.585,337.1,139.796,337.073,140.167z"/>
			<path style="fill:#407BFF;" d="M338.009,127.323l-0.791,10.858c-0.026,0.357-0.466,0.51-0.708,0.247l-1.296-1.407
				c-0.077-0.083-0.115-0.194-0.107-0.307l0.587-8.049c0.008-0.103,0.053-0.199,0.129-0.269l1.501-1.403
				C337.594,126.741,338.036,126.952,338.009,127.323z"/>
		</g>
		<path style="opacity:0.4;fill:#407BFF;" d="M319.52,156.953L319.52,156.953c0.051-0.764,0.719-1.389,1.484-1.389h16.981
			c0.849,0,1.497,0.693,1.441,1.54l0,0.001c-0.051,0.764-0.718,1.388-1.484,1.388h-16.981
			C320.112,158.493,319.463,157.8,319.52,156.953z"/>
		<path style="opacity:0.4;fill:#407BFF;" d="M298.26,156.953L298.26,156.953c0.051-0.764,0.719-1.389,1.484-1.389h16.981
			c0.849,0,1.497,0.693,1.441,1.54l0,0.001c-0.051,0.764-0.718,1.388-1.484,1.388h-16.981
			C298.852,158.493,298.203,157.8,298.26,156.953z"/>
		<path style="opacity:0.4;fill:#407BFF;" d="M277,156.953L277,156.953c0.051-0.764,0.719-1.389,1.484-1.389h16.981
			c0.849,0,1.497,0.693,1.441,1.54l0,0.001c-0.051,0.764-0.718,1.388-1.484,1.388h-16.981
			C277.592,158.493,276.944,157.8,277,156.953z"/>
		<path style="opacity:0.4;fill:#407BFF;" d="M255.74,156.953L255.74,156.953c0.051-0.764,0.719-1.389,1.484-1.389h16.981
			c0.849,0,1.497,0.693,1.441,1.54l0,0.001c-0.051,0.764-0.718,1.388-1.483,1.388h-16.981
			C256.332,158.493,255.684,157.8,255.74,156.953z"/>
		<path style="opacity:0.1;fill:#263238;" d="M208.794,239.375l6.256-46.277c0.414-3.063,3.233-5.546,6.296-5.546h46.277
			c3.063,0,5.211,2.483,4.797,5.546l-6.256,46.277c-0.414,3.063-3.233,5.546-6.296,5.546h-46.277
			C210.528,244.921,208.38,242.438,208.794,239.375z"/>
		<path style="opacity:0.1;fill:#263238;" d="M274.706,239.375l6.256-46.277c0.414-3.063,3.233-5.546,6.296-5.546h46.277
			c3.063,0,5.211,2.483,4.797,5.546l-6.256,46.277c-0.414,3.063-3.233,5.546-6.296,5.546h-46.277
			C276.439,244.921,274.292,242.438,274.706,239.375z"/>
		<path style="opacity:0.1;fill:#263238;" d="M199.885,305.286l6.256-46.277c0.414-3.063,3.233-5.546,6.296-5.546h46.277
			c3.063,0,5.211,2.483,4.797,5.546l-6.256,46.277c-0.414,3.063-3.233,5.546-6.296,5.546h-46.277
			C201.618,310.832,199.471,308.349,199.885,305.286z"/>
		<path style="opacity:0.1;fill:#263238;" d="M265.796,305.286l6.256-46.277c0.414-3.063,3.233-5.546,6.296-5.546h46.277
			c3.063,0,5.211,2.483,4.797,5.546l-6.256,46.277c-0.414,3.063-3.233,5.546-6.296,5.546h-46.277
			C267.53,310.832,265.382,308.349,265.796,305.286z"/>
		<g>
			<path style="fill:#407BFF;" d="M205.715,239.375l6.256-46.277c0.414-3.063,3.233-5.546,6.296-5.546h46.277
				c3.063,0,5.211,2.483,4.797,5.546l-6.256,46.277c-0.414,3.063-3.233,5.546-6.296,5.546h-46.277
				C207.448,244.921,205.301,242.438,205.715,239.375z"/>
			<path style="opacity:0.2;fill:#FFFFFF;" d="M205.715,239.375l6.256-46.277c0.414-3.063,3.233-5.546,6.296-5.546h46.277
				c3.063,0,5.211,2.483,4.797,5.546l-6.256,46.277c-0.414,3.063-3.233,5.546-6.296,5.546h-46.277
				C207.448,244.921,205.301,242.438,205.715,239.375z"/>
		</g>
		<g>
			<path style="fill:#407BFF;" d="M271.626,239.375l6.256-46.277c0.414-3.063,3.233-5.546,6.296-5.546h46.277
				c3.063,0,5.211,2.483,4.797,5.546l-6.256,46.277c-0.414,3.063-3.233,5.546-6.296,5.546h-46.277
				C273.359,244.921,271.212,242.438,271.626,239.375z"/>
			<path style="opacity:0.2;fill:#FFFFFF;" d="M271.626,239.375l6.256-46.277c0.414-3.063,3.233-5.546,6.296-5.546h46.277
				c3.063,0,5.211,2.483,4.797,5.546l-6.256,46.277c-0.414,3.063-3.233,5.546-6.296,5.546h-46.277
				C273.359,244.921,271.212,242.438,271.626,239.375z"/>
		</g>
		<g>
			<path style="fill:#407BFF;" d="M196.805,305.286l6.256-46.277c0.414-3.063,3.233-5.546,6.296-5.546h46.277
				c3.063,0,5.211,2.483,4.797,5.546l-6.256,46.277c-0.414,3.063-3.233,5.546-6.296,5.546h-46.277
				C198.538,310.832,196.391,308.349,196.805,305.286z"/>
			<path style="opacity:0.2;fill:#FFFFFF;" d="M196.805,305.286l6.256-46.277c0.414-3.063,3.233-5.546,6.296-5.546h46.277
				c3.063,0,5.211,2.483,4.797,5.546l-6.256,46.277c-0.414,3.063-3.233,5.546-6.296,5.546h-46.277
				C198.538,310.832,196.391,308.349,196.805,305.286z"/>
		</g>
		<g>
			<path style="fill:#407BFF;" d="M262.716,305.286l6.256-46.277c0.414-3.063,3.233-5.546,6.296-5.546h46.277
				c3.063,0,5.211,2.483,4.797,5.546l-6.256,46.277c-0.414,3.063-3.233,5.546-6.296,5.546h-46.277
				C264.449,310.832,262.302,308.349,262.716,305.286z"/>
			<path style="opacity:0.2;fill:#FFFFFF;" d="M262.716,305.286l6.256-46.277c0.414-3.063,3.233-5.546,6.296-5.546h46.277
				c3.063,0,5.211,2.483,4.797,5.546l-6.256,46.277c-0.414,3.063-3.233,5.546-6.296,5.546h-46.277
				C264.449,310.832,262.302,308.349,262.716,305.286z"/>
		</g>
		<g>
			<path style="fill:#FFFFFF;" d="M234.924,235.491L234.924,235.491c-3.055,0-5.216-2.499-4.803-5.554l3.704-27.401
				c0.413-3.055,3.25-5.554,6.305-5.554h0c3.055,0,5.216,2.499,4.803,5.554l-3.704,27.401
				C240.816,232.991,237.979,235.491,234.924,235.491z"/>
			<path style="fill:#FFFFFF;" d="M218.273,216.236L218.273,216.236c0.413-3.055,3.25-5.554,6.305-5.554h27.401
				c3.055,0,5.216,2.499,4.803,5.554l0,0c-0.413,3.055-3.25,5.554-6.305,5.554h-27.401
				C220.021,221.79,217.86,219.291,218.273,216.236z"/>
			<path style="fill:#FFFFFF;" d="M213.162,295.763L213.162,295.763c-1.868-2.16-1.39-5.695,1.062-7.855l21.994-19.375
				c2.452-2.16,5.987-2.16,7.855,0l0,0c1.868,2.16,1.39,5.695-1.062,7.855l-21.994,19.375
				C218.565,297.923,215.03,297.923,213.162,295.763z"/>
			<path style="fill:#FFFFFF;" d="M216.843,268.533L216.843,268.533c2.452-2.16,5.987-2.16,7.855,0l16.756,19.375
				c1.868,2.16,1.39,5.695-1.062,7.855l0,0c-2.452,2.16-5.987,2.16-7.855,0l-16.756-19.375
				C213.913,274.227,214.391,270.693,216.843,268.533z"/>
			<path style="fill:#FFFFFF;" d="M284.184,216.236L284.184,216.236c0.413-3.055,3.25-5.554,6.305-5.554h27.401
				c3.055,0,5.216,2.499,4.803,5.554l0,0c-0.413,3.055-3.25,5.554-6.305,5.554h-27.401
				C285.933,221.79,283.771,219.291,284.184,216.236z"/>
			<path style="fill:#FFFFFF;" d="M276.441,273.514L276.441,273.514c0.413-3.055,3.25-5.554,6.305-5.554h27.401
				c3.055,0,5.216,2.499,4.803,5.554l0,0c-0.413,3.055-3.25,5.554-6.305,5.554h-27.401
				C278.19,279.068,276.029,276.568,276.441,273.514z"/>
			<path style="fill:#FFFFFF;" d="M274.107,290.782L274.107,290.782c0.413-3.055,3.25-5.554,6.305-5.554h27.401
				c3.055,0,5.216,2.499,4.803,5.554l0,0c-0.413,3.055-3.25,5.554-6.305,5.554H278.91
				C275.856,296.336,273.694,293.836,274.107,290.782z"/>
		</g>
	</g>
</g>
<g id="Character_1_">
	<g>
		<path style="fill:#FF8B7B;" d="M133.357,179.704c-1.798,3.334-3.649,6.935-5.338,10.455c-1.726,3.536-3.318,7.114-4.719,10.706
			c-0.365,0.897-0.667,1.796-1.006,2.696c-0.181,0.422-0.289,0.893-0.343,1.457c-0.097,1.124,0.192,2.602,0.766,4.144
			c1.174,3.078,3.376,6.423,5.651,9.334l-3.405,4.037c-1.029-0.651-1.865-1.273-2.744-1.976c-0.865-0.691-1.713-1.414-2.511-2.206
			c-1.61-1.57-3.109-3.333-4.385-5.42c-1.261-2.086-2.335-4.553-2.617-7.517c-0.146-1.471-0.032-3.054,0.361-4.592
			c0.288-1.041,0.548-2.103,0.863-3.129c1.235-4.128,2.736-8.109,4.433-11.977c0.859-1.931,1.737-3.847,2.705-5.72
			c0.975-1.893,1.907-3.709,3.059-5.627L133.357,179.704z"/>
		<path style="fill:#FF8B7B;" d="M126.978,217.331l5.029,1.315l-3.714,7.229c0,0-3.72-1.411-4.647-4.689L126.978,217.331z"/>
		<polygon style="fill:#FF8B7B;" points="138.896,220.932 134.424,226.601 128.292,225.875 132.007,218.646 		"/>
		<path style="fill:#263238;" d="M156.937,141.564c0.113,0.556,0.499,0.947,0.863,0.873c0.363-0.074,0.566-0.584,0.453-1.14
			c-0.113-0.556-0.499-0.947-0.863-0.873C157.027,140.498,156.824,141.009,156.937,141.564z"/>
		<path style="fill:#FF5652;" d="M157.385,142.522c0,0,1.916,2.95,3.622,4.215c-0.797,1.118-2.555,1.038-2.555,1.038
			L157.385,142.522z"/>
		<path style="fill:#263238;" d="M158.139,146.304c-1.626,0-3.246-1.78-3.742-4.223c-0.261-1.281-0.179-2.553,0.23-3.582
			c0.417-1.048,1.122-1.721,1.987-1.897c0.866-0.175,1.777,0.169,2.569,0.971c0.778,0.788,1.351,1.927,1.61,3.208
			c0.261,1.281,0.179,2.553-0.23,3.582c-0.417,1.048-1.122,1.721-1.987,1.897C158.432,146.289,158.285,146.304,158.139,146.304z
			 M157.059,136.808c-0.133,0-0.265,0.013-0.395,0.04c-0.779,0.158-1.42,0.778-1.805,1.744c-0.392,0.985-0.469,2.207-0.219,3.44
			c0.514,2.527,2.248,4.322,3.887,3.983c0.778-0.158,1.419-0.778,1.804-1.744c0.392-0.985,0.469-2.206,0.219-3.44
			c-0.251-1.234-0.8-2.328-1.544-3.082C158.396,137.132,157.718,136.808,157.059,136.808z"/>
		<path style="fill:#FF8B7B;" d="M209.638,199.197l6.412-1.358l0.83,8.704c0,0-5.538,1.058-8.192-3.323L209.638,199.197z"/>
		<polygon style="fill:#FF8B7B;" points="222.111,199.79 221.702,206.137 216.88,206.543 216.05,197.839 		"/>
		<path style="fill:#263238;" d="M154.274,138.891c-0.081,0-0.162-0.029-0.226-0.089c-0.135-0.125-0.144-0.336-0.018-0.471
			c1.251-1.354,2.769-1.113,2.835-1.102c0.181,0.031,0.303,0.203,0.273,0.384c-0.031,0.181-0.205,0.302-0.383,0.273l0,0
			c-0.05-0.008-1.237-0.182-2.235,0.898C154.453,138.855,154.364,138.891,154.274,138.891z"/>
		<path style="fill:#FF8B7B;" d="M141.498,151.683c1.009,5.146,1.618,12.275-1.982,15.709c0,0,1.407,5.22,10.968,5.22
			c10.514,0,5.058-4.581,5.058-4.581c-4.37-1.356-4.332-6.334-3.333-10.333L141.498,151.683z"/>
		<path style="fill:#263238;" d="M152.296,166.139c2.361-1.694,5.858-3.694,6.583-1.611c0.438,1.257,0.617,7.361-1.812,6.906
			C153.476,170.762,152.296,166.139,152.296,166.139z"/>
		<path style="fill:#407BFF;" d="M137.546,170.833c-0.936-1.326-0.899-5.515,0.101-6.254c1.614-1.193,8.517-1.467,17.816,0.671
			c-1.002,4.058,1.143,6.185,1.143,6.185L137.546,170.833z"/>
		<path style="fill:#407BFF;" d="M106.293,408.237c0.705,0.153,1.411,0.193,1.751-0.096c0.143-0.121,0.286-0.354,0.161-0.774
			c-0.066-0.221-0.21-0.386-0.429-0.49c-0.95-0.453-3.132,0.436-3.225,0.474c-0.06,0.025-0.101,0.083-0.103,0.149
			c-0.002,0.066,0.035,0.126,0.094,0.155C104.876,407.816,105.584,408.084,106.293,408.237z M107.437,407.113
			c0.072,0.016,0.137,0.037,0.196,0.064c0.132,0.063,0.215,0.156,0.253,0.285c0.089,0.3-0.022,0.394-0.059,0.425
			c-0.378,0.322-1.783,0.025-2.772-0.371C105.726,407.28,106.812,406.978,107.437,407.113z"/>
		<path style="fill:#407BFF;" d="M104.579,407.668c0.027,0.006,0.055,0.005,0.082-0.003c0.795-0.232,2.496-1.441,2.517-2.238
			c0.004-0.145-0.047-0.407-0.426-0.539c-0.246-0.086-0.494-0.066-0.739,0.059c-0.94,0.48-1.534,2.428-1.559,2.511
			c-0.018,0.059-0.002,0.122,0.041,0.165C104.52,407.646,104.549,407.661,104.579,407.668z M106.57,405.181
			c0.024,0.005,0.049,0.012,0.073,0.021c0.206,0.072,0.203,0.173,0.202,0.216c-0.012,0.471-1.134,1.42-1.958,1.804
			c0.206-0.562,0.676-1.671,1.278-1.978C106.303,405.173,106.436,405.152,106.57,405.181z"/>
		<path style="fill:#407BFF;" d="M158.223,409.417c0.903,0,1.775-0.124,2.067-0.53c0.102-0.142,0.183-0.384-0.014-0.728
			c-0.11-0.193-0.288-0.325-0.528-0.39c-1.171-0.318-3.629,1.082-3.733,1.142c-0.06,0.035-0.092,0.103-0.081,0.171
			c0.011,0.069,0.064,0.123,0.132,0.137C156.515,409.309,157.383,409.417,158.223,409.417z M159.339,408.053
			c0.117,0,0.226,0.012,0.322,0.038c0.154,0.042,0.26,0.118,0.326,0.233c0.118,0.207,0.075,0.31,0.032,0.368
			c-0.327,0.455-2.105,0.465-3.413,0.28C157.259,408.638,158.517,408.053,159.339,408.053z"/>
		<path style="fill:#407BFF;" d="M156.099,409.223c0.023,0,0.046-0.005,0.068-0.015c0.849-0.381,2.531-1.902,2.402-2.697
			c-0.03-0.187-0.163-0.419-0.62-0.466c-0.342-0.035-0.651,0.062-0.924,0.286c-0.895,0.735-1.084,2.629-1.092,2.71
			c-0.006,0.059,0.02,0.117,0.069,0.151C156.031,409.212,156.065,409.223,156.099,409.223z M157.815,406.371
			c0.033,0,0.066,0.002,0.1,0.005c0.3,0.03,0.319,0.148,0.325,0.187c0.077,0.477-1.065,1.673-1.932,2.193
			c0.09-0.553,0.341-1.687,0.928-2.169C157.413,406.443,157.604,406.371,157.815,406.371z"/>
		<polygon style="fill:#FF8B7B;" points="148.364,409.056 155.398,409.056 156.099,392.767 149.065,392.767 		"/>
		<polygon style="fill:#FF8B7B;" points="96.739,405.8 103.613,407.288 110.515,392.117 103.641,390.628 		"/>
		<path style="fill:#263238;" d="M104.274,406.598l-7.723-1.672c-0.281-0.061-0.567,0.082-0.687,0.343l-2.681,5.816
			c-0.278,0.603,0.09,1.311,0.742,1.44c2.706,0.537,4.05,0.663,7.447,1.398c2.09,0.452,6.806,1.602,9.692,2.226
			c2.822,0.611,3.88-2.147,2.755-2.661c-5.046-2.305-7.154-4.335-8.52-6.227C105.052,406.921,104.685,406.687,104.274,406.598z"/>
		<path style="fill:#263238;" d="M155.352,408.242h-7.681c-0.287,0-0.536,0.2-0.599,0.48l-1.389,6.252
			c-0.144,0.648,0.348,1.262,1.012,1.251c2.771-0.047,6.775-0.21,10.258-0.21c4.072,0,7.589,0.222,12.365,0.222
			c2.887,0,3.689-2.919,2.48-3.184c-5.503-1.204-9.995-1.333-14.75-4.264C156.529,408.471,155.959,408.242,155.352,408.242z"/>
		<g>
			<path style="fill:#407BFF;" d="M126.921,168.982c-6.592,1.511-12.028,18.341-12.028,18.341l13.238,10.09
				c0,0,4.859-4.581,7.021-12.999C137.419,175.593,133.662,167.437,126.921,168.982z"/>
			<path style="opacity:0.4;fill:#FFFFFF;" d="M126.921,168.982c-6.592,1.511-12.028,18.341-12.028,18.341l13.238,10.09
				c0,0,4.859-4.581,7.021-12.999C137.419,175.593,133.662,167.437,126.921,168.982z"/>
		</g>
		<path style="fill:#FF8B7B;" d="M166.452,177.011l11.107,10.219c1.847,1.703,3.703,3.387,5.56,5.045
			c1.842,1.659,3.724,3.324,5.508,4.767l-1.546-0.83c0.86,0.313,1.762,0.625,2.707,0.878c0.95,0.245,1.935,0.463,2.94,0.664
			c2.021,0.365,4.13,0.631,6.281,0.804c2.152,0.184,4.347,0.299,6.564,0.361c2.202,0.079,4.5,0.11,6.663,0.126l1.051,5.176
			c-2.356,0.876-4.624,1.51-7,2.041c-2.362,0.511-4.765,0.878-7.213,1.104c-2.449,0.203-4.944,0.27-7.494,0.102
			c-2.553-0.152-5.162-0.561-7.825-1.342l-0.758-0.222l-0.789-0.608c-2.195-1.691-4.143-3.343-6.107-5.025
			c-1.945-1.688-3.862-3.383-5.762-5.087c-3.774-3.444-7.524-6.863-11.201-10.415L166.452,177.011z"/>
		<path style="opacity:0.2;" d="M132.571,181.358c-3.581,3.543-4.749,9.996-5.027,15.606l0.584,0.45c0,0,4.864-4.586,7.028-13.002
			c0.134-0.526,0.249-1.053,0.345-1.57L132.571,181.358z"/>
		<g>
			<path style="fill:#407BFF;" d="M168.58,176.035c1.438,7.599,2.338,23.203-1.837,54.105h-37.621
				c-0.259-5.775,3.37-33.947-2.201-61.158c0,0,6.449-1.294,12.594-1.59c4.807-0.232,11.767-0.385,15.993,0.001
				c1.764,0.161,3.495,0.416,5.038,0.689C164.614,168.801,167.812,171.976,168.58,176.035z"/>
			<path style="opacity:0.4;fill:#FFFFFF;" d="M168.58,176.035c1.438,7.599,2.338,23.203-1.837,54.105h-37.621
				c-0.259-5.775,3.37-33.947-2.201-61.158c0,0,6.449-1.294,12.594-1.59c4.807-0.232,11.767-0.385,15.993,0.001
				c1.764,0.161,3.495,0.416,5.038,0.689C164.614,168.801,167.812,171.976,168.58,176.035z"/>
		</g>
		<path style="opacity:0.2;" d="M162.823,187.266l6.798-1.628c0.211,4.117,0.23,9.22-0.076,15.53
			C166.413,197.606,162.421,192.053,162.823,187.266z"/>
		<g>
			<polygon style="opacity:0.2;" points="156.097,392.772 155.737,401.168 148.701,401.168 149.06,392.772 			"/>
			<polygon style="opacity:0.2;" points="103.637,390.632 110.515,392.121 106.954,399.94 100.076,398.452 			"/>
		</g>
		<path style="fill:#FF8B7B;" d="M138.154,144.155c1.807,6.743,2.522,10.781,6.683,13.585c6.259,4.217,14.051-0.623,14.295-7.77
			c0.219-6.433-2.773-16.379-10.009-17.738C141.995,130.894,136.347,137.412,138.154,144.155z"/>
		<path style="fill:#263238;" d="M153.45,144.667c3.156-0.445,2.254-4.099,1.068-5.883c0,0,7.048-8.451-1.068-11.867
			c-8.117-3.417-6.117,1.917-6.117,1.917s-6.331-4.75-11.832-0.917c-5.501,3.833-0.751,5.5-0.751,5.5s-10.018,2.945-6.009,8.014
			c4.009,5.069,8.129,4.55,8.129,4.55s-8.287,3.269-1.953,6.936c6.333,3.667,8.654,3.836,8.654,3.836l0,0
			c3.473,0.432,6.75-1.703,7.76-5.054L153.45,144.667z"/>
		<path style="fill:#FF8B7B;" d="M150.734,144.691c0.109,1.825,0.956,3.542,1.976,4.666c1.533,1.689,3.133,0.638,3.405-1.42
			c0.245-1.852-0.258-4.963-2.133-5.894C152.135,141.124,150.61,142.604,150.734,144.691z"/>
		<path style="fill:#263238;" d="M153.398,230.14c0,0-7.982,53.753-12.365,73.891c-4.799,22.053-30.531,95.014-30.531,95.014
			l-12.591-2.726c0,0,17.993-59.458,22.021-90.289c3.094-23.682,9.19-75.89,9.19-75.89H153.398z"/>
		<path style="fill:#407BFF;" d="M113.517,394.842c0.054,0.012-2.347,4.553-2.347,4.553l-14.166-3.067l1.194-4.259L113.517,394.842z
			"/>
		<path style="opacity:0.3;" d="M148.353,249.292c-9.23,1.81-8.253,36.23-7.143,53.933c2.662-12.514,6.558-36.594,9.22-53.684
			C149.818,249.235,149.128,249.139,148.353,249.292z"/>
		<path style="fill:#263238;" d="M166.743,230.14c0,0,0.969,52.59,0.204,74.039c-0.796,22.311-8.588,95.363-8.588,95.363h-11.915
			c0,0-0.437-71.748-0.967-93.66c-0.578-23.887-3.462-75.742-3.462-75.742H166.743z"/>
		<path style="fill:#407BFF;" d="M160.651,394.796c0.055,0-0.672,4.947-0.672,4.947h-14.494l-0.392-4.415L160.651,394.796z"/>
		<g>
			<path style="fill:#407BFF;" d="M153.837,178.342c-3.373,9.089,16.442,19.795,16.442,19.795l8.578-11.028
				c0,0-5.723-11.39-12.746-16.525C157.435,164.241,156.404,171.423,153.837,178.342z"/>
			<path style="opacity:0.4;fill:#FFFFFF;" d="M153.837,178.342c-3.373,9.089,16.442,19.795,16.442,19.795l8.578-11.028
				c0,0-5.723-11.39-12.746-16.525C157.435,164.241,156.404,171.423,153.837,178.342z"/>
		</g>
		<ellipse style="fill:#263238;" cx="210.764" cy="200.097" rx="2.458" ry="1.847"/>
		<path style="fill:#263238;" d="M209.806,205.972c-0.143,0-0.283-0.061-0.383-0.178c-0.177-0.21-0.15-0.524,0.058-0.702
			c0.063-0.056,1.343-1.225,0.793-3.938c-0.055-0.271,0.12-0.534,0.391-0.589c0.273-0.05,0.534,0.12,0.59,0.391
			c0.676,3.335-1.052,4.836-1.126,4.898C210.034,205.934,209.92,205.972,209.806,205.972z"/>
		<path style="opacity:0.4;fill:#FFFFFF;" d="M212.762,199.964c0,0.756-0.895,1.369-1.998,1.369s-1.998-0.613-1.998-1.369
			c0-0.756,0.895-1.369,1.998-1.369S212.762,199.208,212.762,199.964z"/>
		<path style="fill:#407BFF;" d="M156.942,167.473c-4.605,3.288-12.575,16.003-14.046,23.509c-0.044,0.223-0.336,0.276-0.457,0.084
			c-6.662-10.623-7.43-21.499-7.512-23.268c-0.007-0.14-0.124-0.241-0.264-0.229c-0.68,0.056-2.539,0.221-3.346,0.412
			c-0.114,0.027-0.189,0.137-0.184,0.254c0.598,14.183,7.739,25.031,10.519,28.363c0.04,0.047,0.057,0.101,0.053,0.163
			c-0.617,11.254,0.199,31.36,0.3,33.755c0.006,0.133,0.115,0.235,0.248,0.235h2.986c0.143,0,0.256-0.113,0.248-0.256
			c-0.133-2.307-1.072-19.777,0.014-34.104c0.001-0.01,0.002-0.019,0.003-0.028c1.684-10.662,11.796-25.069,15.345-27.926
			c0.161-0.13,0.099-0.383-0.102-0.428c-1.501-0.331-3.228-0.535-3.636-0.581C157.046,167.421,156.993,167.436,156.942,167.473z"/>
	</g>
</g>
</svg>
